[
  {
    "id": 3066,
    "siteNetwork": "cpgdemo",
    "feedUserId": "admin",
    "postUserId": "cpgadmin",
    "postDate": "2011-09-02T18:26:26.000Z",
    "activitySummary": "{\"lastName\":\"Admin\",\"title\":\"Special Announcements\",\"page\":\"wiki-page?title=Special_Announcements\",\"firstName\":\"CPG Demo\"}",
    "activityType": "org.alfresco.wiki.page-edited",
    "activitySummaryFormat": "json"
  },
  {
    "id": 3058,
    "siteNetwork": "asco",
    "feedUserId": "admin",
    "postUserId": "srost",
    "postDate": "2011-09-01T18:18:21.000Z",
    "activitySummary": "{\"lastName\":\"Rost\",\"title\":\"List of Staff (Contact List)\",\"page\":\"data-lists?list=bcd1a3e2-07e7-4c1c-8366-47d0f582d231\",\"nodeRef\":\"workspace://SpacesStore/350e3896-b55d-4355-bb3d-67b8e375b0c3\",\"firstName\":\"Scott\"}",
    "activityType": "org.alfresco.datalists.list-created",
    "activitySummaryFormat": "json"
  },
  {
    "id": 3046,
    "siteNetwork": "cpgdemo",
    "feedUserId": "admin",
    "postUserId": "admin",
    "postDate": "2011-08-25T17:55:05.000Z",
    "activitySummary": "{\"lastName\":\"\",\"title\":\"Company BBQ\",\"page\":\"calendar?date=2011-08-25\",\"firstName\":\"Administrator\"}",
    "activityType": "org.alfresco.calendar.event-created",
    "activitySummaryFormat": "json"
  },
  {
    "id": 3038,
    "siteNetwork": "cpgdemo",
    "feedUserId": "admin",
    "postUserId": "cpgdemo",
    "postDate": "2011-08-25T17:16:22.000Z",
    "activitySummary": "{\"lastName\":\"Demo\",\"title\":\"CPG Demo (cpgdemo)\",\"memberLastName\":\"Demo\",\"role\":\"SiteConsumer\",\"firstName\":\"CPG\",\"memberUserName\":\"cpgdemo\",\"memberFirstName\":\"CPG\"}",
    "activityType": "org.alfresco.site.user-joined",
    "activitySummaryFormat": "json"
  },
  {
    "id": 3030,
    "siteNetwork": "cpgdemo",
    "feedUserId": "admin",
    "postUserId": "cpgadmin",
    "postDate": "2011-08-25T17:13:58.000Z",
    "activitySummary": "{\"lastName\":\"Admin\",\"title\":\"Mailings and Communications\",\"page\":\"wiki-page?title=Mailings_and_Communications\",\"firstName\":\"CPG Demo\"}",
    "activityType": "org.alfresco.wiki.page-edited",
    "activitySummaryFormat": "json"
  },
  {
    "id": 3024,
    "siteNetwork": "cpgdemo",
    "feedUserId": "admin",
    "postUserId": "cpgadmin",
    "postDate": "2011-08-25T17:10:35.000Z",
    "activitySummary": "{\"lastName\":\"Admin\",\"title\":\"Job Aid 3\",\"page\":\"document-details?nodeRef=workspace://SpacesStore/d910e917-5803-4786-a546-a2794f2f5906\",\"nodeRef\":\"workspace://SpacesStore/d910e917-5803-4786-a546-a2794f2f5906\",\"firstName\":\"CPG Demo\"}",
    "activityType": "org.alfresco.documentlibrary.file-created",
    "activitySummaryFormat": "json"
  },
  {
    "id": 3018,
    "siteNetwork": "cpgdemo",
    "feedUserId": "admin",
    "postUserId": "cpgadmin",
    "postDate": "2011-08-25T17:10:23.000Z",
    "activitySummary": "{\"lastName\":\"Admin\",\"title\":\"Job Aid 2\",\"page\":\"document-details?nodeRef=workspace://SpacesStore/db24835b-45fd-4caa-84d9-8233ec2584d7\",\"nodeRef\":\"workspace://SpacesStore/db24835b-45fd-4caa-84d9-8233ec2584d7\",\"firstName\":\"CPG Demo\"}",
    "activityType": "org.alfresco.documentlibrary.file-created",
    "activitySummaryFormat": "json"
  },
  {
    "id": 3012,
    "siteNetwork": "cpgdemo",
    "feedUserId": "admin",
    "postUserId": "cpgadmin",
    "postDate": "2011-08-25T17:09:55.000Z",
    "activitySummary": "{\"lastName\":\"Admin\",\"title\":\"Job Aids\",\"page\":\"wiki-page?title=Job_Aids\",\"firstName\":\"CPG Demo\"}",
    "activityType": "org.alfresco.wiki.page-created",
    "activitySummaryFormat": "json"
  },
  {
    "id": 3006,
    "siteNetwork": "cpgdemo",
    "feedUserId": "admin",
    "postUserId": "cpgadmin",
    "postDate": "2011-08-25T17:08:06.000Z",
    "activitySummary": "{\"lastName\":\"Admin\",\"title\":\"Vendor Links\",\"page\":\"wiki-page?title=Vendor_Links\",\"firstName\":\"CPG Demo\"}",
    "activityType": "org.alfresco.wiki.page-created",
    "activitySummaryFormat": "json"
  },
  {
    "id": 3000,
    "siteNetwork": "cpgdemo",
    "feedUserId": "admin",
    "postUserId": "cpgadmin",
    "postDate": "2011-08-25T17:06:55.000Z",
    "activitySummary": "{\"lastName\":\"Admin\",\"title\":\"PSW\",\"page\":\"links-view?linkId=link-1314292015759_442\",\"firstName\":\"CPG Demo\"}",
    "activityType": "org.alfresco.links.link-created",
    "activitySummaryFormat": "json"
  },
  {
    "id": 2994,
    "siteNetwork": "cpgdemo",
    "feedUserId": "admin",
    "postUserId": "cpgadmin",
    "postDate": "2011-08-25T17:06:43.000Z",
    "activitySummary": "{\"lastName\":\"Admin\",\"title\":\"BW\",\"page\":\"links-view?linkId=link-1314292003203_944\",\"firstName\":\"CPG Demo\"}",
    "activityType": "org.alfresco.links.link-created",
    "activitySummaryFormat": "json"
  },
  {
    "id": 2988,
    "siteNetwork": "cpgdemo",
    "feedUserId": "admin",
    "postUserId": "cpgadmin",
    "postDate": "2011-08-25T17:06:22.000Z",
    "activitySummary": "{\"lastName\":\"Admin\",\"title\":\"CRM\",\"page\":\"links-view?linkId=link-1314291982097_916\",\"firstName\":\"CPG Demo\"}",
    "activityType": "org.alfresco.links.link-created",
    "activitySummaryFormat": "json"
  },
  {
    "id": 2982,
    "siteNetwork": "cpgdemo",
    "feedUserId": "admin",
    "postUserId": "cpgadmin",
    "postDate": "2011-08-25T16:59:27.000Z",
    "activitySummary": "{\"lastName\":\"Admin\",\"title\":\"zialogo_clear_back_small_bigger.jpg\",\"page\":\"document-details?nodeRef=workspace://SpacesStore/bde7df7c-7c23-4129-bf65-fbb450d252bb\",\"nodeRef\":\"workspace://SpacesStore/bde7df7c-7c23-4129-bf65-fbb450d252bb\",\"firstName\":\"CPG Demo\"}",
    "activityType": "org.alfresco.documentlibrary.file-added",
    "activitySummaryFormat": "json"
  },
  {
    "id": 2976,
    "siteNetwork": "cpgdemo",
    "feedUserId": "admin",
    "postUserId": "cpgadmin",
    "postDate": "2011-08-25T16:56:03.000Z",
    "activitySummary": "{\"lastName\":\"Admin\",\"title\":\"Mailings and Communications\",\"page\":\"wiki-page?title=Mailings_and_Communications\",\"firstName\":\"CPG Demo\"}",
    "activityType": "org.alfresco.wiki.page-edited",
    "activitySummaryFormat": "json"
  },
  {
    "id": 2970,
    "siteNetwork": "cpgdemo",
    "feedUserId": "admin",
    "postUserId": "cpgadmin",
    "postDate": "2011-08-25T16:53:12.000Z",
    "activitySummary": "{\"lastName\":\"Admin\",\"title\":\"Mail 1\",\"page\":\"document-details?nodeRef=workspace://SpacesStore/a09ac6bb-0f52-4307-bb8f-a050ea07c0fa\",\"nodeRef\":\"workspace://SpacesStore/a09ac6bb-0f52-4307-bb8f-a050ea07c0fa\",\"firstName\":\"CPG Demo\"}",
    "activityType": "org.alfresco.documentlibrary.file-created",
    "activitySummaryFormat": "json"
  },
  {
    "id": 2964,
    "siteNetwork": "cpgdemo",
    "feedUserId": "admin",
    "postUserId": "cpgadmin",
    "postDate": "2011-08-25T16:52:32.000Z",
    "activitySummary": "{\"lastName\":\"Admin\",\"title\":\"Mailing A\",\"page\":\"document-details?nodeRef=workspace://SpacesStore/e359c983-1dd5-41d7-9468-a086b11bb370\",\"nodeRef\":\"workspace://SpacesStore/e359c983-1dd5-41d7-9468-a086b11bb370\",\"firstName\":\"CPG Demo\"}",
    "activityType": "org.alfresco.documentlibrary.file-created",
    "activitySummaryFormat": "json"
  },
  {
    "id": 2958,
    "siteNetwork": "cpgdemo",
    "feedUserId": "admin",
    "postUserId": "cpgadmin",
    "postDate": "2011-08-25T16:52:09.000Z",
    "activitySummary": "{\"lastName\":\"Admin\",\"title\":\"Content A\",\"page\":\"document-details?nodeRef=workspace://SpacesStore/183d7302-5fa3-4a2d-816c-acf142963811\",\"nodeRef\":\"workspace://SpacesStore/183d7302-5fa3-4a2d-816c-acf142963811\",\"firstName\":\"CPG Demo\"}",
    "activityType": "org.alfresco.documentlibrary.file-created",
    "activitySummaryFormat": "json"
  },
  {
    "id": 2952,
    "siteNetwork": "cpgdemo",
    "feedUserId": "admin",
    "postUserId": "cpgadmin",
    "postDate": "2011-08-25T16:49:52.000Z",
    "activitySummary": "{\"lastName\":\"Admin\",\"title\":\"Mailings and Communications\",\"page\":\"wiki-page?title=Mailings_and_Communications\",\"firstName\":\"CPG Demo\"}",
    "activityType": "org.alfresco.wiki.page-created",
    "activitySummaryFormat": "json"
  },
  {
    "id": 2946,
    "siteNetwork": "cpgdemo",
    "feedUserId": "admin",
    "postUserId": "cpgadmin",
    "postDate": "2011-08-25T16:47:21.000Z",
    "activitySummary": "{\"lastName\":\"Admin\",\"title\":\"Special Announcements\",\"page\":\"wiki-page?title=Special_Announcements\",\"firstName\":\"CPG Demo\"}",
    "activityType": "org.alfresco.wiki.page-created",
    "activitySummaryFormat": "json"
  },
  {
    "id": 2940,
    "siteNetwork": "cpgdemo",
    "feedUserId": "admin",
    "postUserId": "admin",
    "postDate": "2011-08-25T16:43:14.000Z",
    "activitySummary": "{\"lastName\":\"\",\"title\":\"CPG Demo Admin (cpgadmin)\",\"memberLastName\":\"Admin\",\"role\":\"SiteManager\",\"firstName\":\"Administrator\",\"memberUserName\":\"cpgadmin\",\"memberFirstName\":\"CPG Demo\"}",
    "activityType": "org.alfresco.site.user-role-changed",
    "activitySummaryFormat": "json"
  },
  {
    "id": 2934,
    "siteNetwork": "cpgdemo",
    "feedUserId": "admin",
    "postUserId": "cpgadmin",
    "postDate": "2011-08-25T16:26:42.000Z",
    "activitySummary": "{\"lastName\":\"Admin\",\"title\":\"CPG Demo Admin (cpgadmin)\",\"memberLastName\":\"Admin\",\"role\":\"SiteConsumer\",\"firstName\":\"CPG Demo\",\"memberUserName\":\"cpgadmin\",\"memberFirstName\":\"CPG Demo\"}",
    "activityType": "org.alfresco.site.user-joined",
    "activitySummaryFormat": "json"
  },
  {
    "id": 2930,
    "siteNetwork": "cpgdemo",
    "feedUserId": "admin",
    "postUserId": "admin",
    "postDate": "2011-08-25T04:56:26.000Z",
    "activitySummary": "{\"lastName\":\"\",\"title\":\"User Permissions (User Permission List)\",\"page\":\"data-lists?list=69b4cdbd-984d-49c4-ad62-bae4d785ce6f\",\"nodeRef\":\"workspace://SpacesStore/cb5ae8ee-1939-449d-9b57-c4f4363e3401\",\"firstName\":\"Administrator\"}",
    "activityType": "org.alfresco.datalists.list-created",
    "activitySummaryFormat": "json"
  },
  {
    "id": 2924,
    "siteNetwork": "asco",
    "feedUserId": "admin",
    "postUserId": "admin",
    "postDate": "2011-08-25T04:07:30.000Z",
    "activitySummary": "{\"lastName\":\"\",\"title\":\"Google\",\"page\":\"links-view?linkId=link-1314245250780_528\",\"firstName\":\"Administrator\"}",
    "activityType": "org.alfresco.links.link-created",
    "activitySummaryFormat": "json"
  },
  {
    "id": 2816,
    "siteNetwork": "EPA",
    "feedUserId": "admin",
    "postUserId": "admin",
    "postDate": "2011-08-18T20:36:24.000Z",
    "activitySummary": "{\"lastName\":\"\",\"title\":\"test agenda (Fresh Agenda List)\",\"page\":\"data-lists?list=a2375cdd-14fe-4ce0-99b6-df05066d7432\",\"nodeRef\":\"workspace://SpacesStore/2dd7a47f-3e03-45b5-bf4e-d511312c212f\",\"firstName\":\"Administrator\"}",
    "activityType": "org.alfresco.datalists.list-created",
    "activitySummaryFormat": "json"
  },
  {
    "id": 2812,
    "siteNetwork": "EPA",
    "feedUserId": "admin",
    "postUserId": "admin",
    "postDate": "2011-08-18T20:28:28.000Z",
    "activitySummary": "{\"lastName\":\"\",\"title\":\"Safe Plans Demo\",\"page\":\"document-details?nodeRef=workspace://SpacesStore/c9eb33cb-f8eb-4fe9-9a33-6e9563c0da99\",\"nodeRef\":\"workspace://SpacesStore/c9eb33cb-f8eb-4fe9-9a33-6e9563c0da99\",\"firstName\":\"Administrator\"}",
    "activityType": "org.alfresco.documentlibrary.file-updated",
    "activitySummaryFormat": "json"
  },
  {
    "id": 2808,
    "siteNetwork": "EPA",
    "feedUserId": "admin",
    "postUserId": "admin",
    "postDate": "2011-08-18T20:27:17.000Z",
    "activitySummary": "{\"lastName\":\"\",\"title\":\"Safe Plans Demo\",\"page\":\"document-details?nodeRef=workspace://SpacesStore/c9eb33cb-f8eb-4fe9-9a33-6e9563c0da99\",\"nodeRef\":\"workspace://SpacesStore/c9eb33cb-f8eb-4fe9-9a33-6e9563c0da99\",\"firstName\":\"Administrator\"}",
    "activityType": "org.alfresco.documentlibrary.file-created",
    "activitySummaryFormat": "json"
  },
  {
    "id": 2804,
    "siteNetwork": "rvillarrealtestsite",
    "feedUserId": "admin",
    "postUserId": "System",
    "postDate": "2011-08-17T17:59:57.000Z",
    "activitySummary": "{\"lastName\":\"\",\"title\":\"Ricardo Villarreal (ricardo_villarreal)\",\"memberLastName\":\"Villarreal\",\"role\":\"SiteManager\",\"firstName\":\"System\",\"memberUserName\":\"ricardo_villarreal\",\"memberFirstName\":\"Ricardo\"}",
    "activityType": "org.alfresco.site.user-joined",
    "activitySummaryFormat": "json"
  },
  {
    "id": 2798,
    "siteNetwork": "asco",
    "feedUserId": "admin",
    "postUserId": "admin",
    "postDate": "2011-08-16T15:00:48.000Z",
    "activitySummary": "{\"lastName\":\"\",\"title\":\"h\",\"page\":\"data-lists\",\"nodeRef\":\"workspace://SpacesStore/8e30f167-9b25-43d8-bf8d-3782ac9e18c3\",\"firstName\":\"Administrator\"}",
    "activityType": "org.alfresco.datalists.list-deleted",
    "activitySummaryFormat": "json"
  },
  {
    "id": 2794,
    "siteNetwork": "asco",
    "feedUserId": "admin",
    "postUserId": "admin",
    "postDate": "2011-08-16T15:00:36.000Z",
    "activitySummary": "{\"lastName\":\"\",\"title\":\"h (Task List (Simple))\",\"page\":\"data-lists?list=dca2714b-c21a-4763-b359-d9fb11da4fb5\",\"nodeRef\":\"workspace://SpacesStore/8e30f167-9b25-43d8-bf8d-3782ac9e18c3\",\"firstName\":\"Administrator\"}",
    "activityType": "org.alfresco.datalists.list-created",
    "activitySummaryFormat": "json"
  },
  {
    "id": 2790,
    "siteNetwork": "asco",
    "feedUserId": "admin",
    "postUserId": "admin",
    "postDate": "2011-08-16T15:00:01.000Z",
    "activitySummary": "{\"lastName\":\"\",\"title\":\"td\",\"page\":\"data-lists\",\"nodeRef\":\"workspace://SpacesStore/b760034a-13ec-488a-844a-3509875ac84f\",\"firstName\":\"Administrator\"}",
    "activityType": "org.alfresco.datalists.list-deleted",
    "activitySummaryFormat": "json"
  },
  {
    "id": 2784,
    "siteNetwork": "asco",
    "feedUserId": "admin",
    "postUserId": "admin",
    "postDate": "2011-08-16T14:36:24.000Z",
    "activitySummary": "{\"lastName\":\"\",\"title\":\"td (To Do List)\",\"page\":\"data-lists?list=ae6c5f8b-2714-4c3d-993a-5695e81cebd9\",\"nodeRef\":\"workspace://SpacesStore/b760034a-13ec-488a-844a-3509875ac84f\",\"firstName\":\"Administrator\"}",
    "activityType": "org.alfresco.datalists.list-created",
    "activitySummaryFormat": "json"
  },
  {
    "id": 2772,
    "siteNetwork": "asco",
    "feedUserId": "admin",
    "postUserId": "admin",
    "postDate": "2011-08-15T16:20:56.000Z",
    "activitySummary": "{\"lastName\":\"\",\"title\":\"Risk Items (Risks List)\",\"page\":\"data-lists?list=a0accf95-32f6-459a-bc6f-cb702b28ab8d\",\"nodeRef\":\"workspace://SpacesStore/1607d645-15e0-4995-b038-881b5b5ebc31\",\"firstName\":\"Administrator\"}",
    "activityType": "org.alfresco.datalists.list-created",
    "activitySummaryFormat": "json"
  },
  {
    "id": 2760,
    "siteNetwork": "asco",
    "feedUserId": "admin",
    "postUserId": "admin",
    "postDate": "2011-08-15T16:20:23.000Z",
    "activitySummary": "{\"lastName\":\"\",\"title\":\"Scott Rost (srost)\",\"memberLastName\":\"Rost\",\"role\":\"SiteManager\",\"firstName\":\"Administrator\",\"memberUserName\":\"srost\",\"memberFirstName\":\"Scott\"}",
    "activityType": "org.alfresco.site.user-role-changed",
    "activitySummaryFormat": "json"
  },
  {
    "id": 2748,
    "siteNetwork": "asco",
    "feedUserId": "admin",
    "postUserId": "admin",
    "postDate": "2011-08-15T16:20:19.000Z",
    "activitySummary": "{\"lastName\":\"\",\"title\":\"Contract Administrator (contractadmin)\",\"memberLastName\":\"Administrator\",\"role\":\"SiteCollaborator\",\"firstName\":\"Administrator\",\"memberUserName\":\"contractadmin\",\"memberFirstName\":\"Contract\"}",
    "activityType": "org.alfresco.site.user-role-changed",
    "activitySummaryFormat": "json"
  },
  {
    "id": 2736,
    "siteNetwork": "asco",
    "feedUserId": "admin",
    "postUserId": "admin",
    "postDate": "2011-08-15T16:19:56.000Z",
    "activitySummary": "{\"lastName\":\"\",\"title\":\"Scott Rost (srost)\",\"memberLastName\":\"Rost\",\"role\":\"SiteCollaborator\",\"firstName\":\"Administrator\",\"memberUserName\":\"srost\",\"memberFirstName\":\"Scott\"}",
    "activityType": "org.alfresco.site.user-role-changed",
    "activitySummaryFormat": "json"
  },
  {
    "id": 2724,
    "siteNetwork": "asco",
    "feedUserId": "admin",
    "postUserId": "admin",
    "postDate": "2011-08-15T16:18:32.000Z",
    "activitySummary": "{\"lastName\":\"\",\"title\":\"Scott Rost (srost)\",\"memberLastName\":\"Rost\",\"role\":\"SiteConsumer\",\"firstName\":\"Administrator\",\"memberUserName\":\"srost\",\"memberFirstName\":\"Scott\"}",
    "activityType": "org.alfresco.site.user-joined",
    "activitySummaryFormat": "json"
  },
  {
    "id": 2712,
    "siteNetwork": "asco",
    "feedUserId": "admin",
    "postUserId": "admin",
    "postDate": "2011-08-12T20:25:33.000Z",
    "activitySummary": "{\"lastName\":\"\",\"title\":\"Assessment Outline.pdf\",\"page\":\"document-details?nodeRef=workspace://SpacesStore/96d97830-b45a-4fa2-b2e1-71b1a1d6d669\",\"nodeRef\":\"workspace://SpacesStore/96d97830-b45a-4fa2-b2e1-71b1a1d6d669\",\"firstName\":\"Administrator\"}",
    "activityType": "org.alfresco.documentlibrary.file-added",
    "activitySummaryFormat": "json"
  },
  {
    "id": 2704,
    "siteNetwork": "asco",
    "feedUserId": "admin",
    "postUserId": "admin",
    "postDate": "2011-08-12T20:17:55.000Z",
    "activitySummary": "{\"lastName\":\"\",\"title\":\"Vendors\",\"page\":\"documentlibrary?path=/Job Aid\",\"nodeRef\":\"workspace://SpacesStore/75424ca2-877f-472f-b81f-0094ddf297d8\",\"firstName\":\"Administrator\"}",
    "activityType": "org.alfresco.documentlibrary.file-deleted",
    "activitySummaryFormat": "json"
  },
  {
    "id": 2700,
    "siteNetwork": "asco",
    "feedUserId": "admin",
    "postUserId": "admin",
    "postDate": "2011-08-12T20:15:19.000Z",
    "activitySummary": "{\"lastName\":\"\",\"title\":\"Job Aid #2\",\"page\":\"wiki-page?title=Job_Aid_#2\",\"firstName\":\"Administrator\"}",
    "activityType": "org.alfresco.wiki.page-created",
    "activitySummaryFormat": "json"
  },
  {
    "id": 2690,
    "siteNetwork": "asco",
    "feedUserId": "admin",
    "postUserId": "admin",
    "postDate": "2011-08-12T20:14:58.000Z",
    "activitySummary": "{\"lastName\":\"\",\"title\":\"Job Aid\",\"page\":\"wiki-page?title=Job_Aid\",\"firstName\":\"Administrator\"}",
    "activityType": "org.alfresco.wiki.page-created",
    "activitySummaryFormat": "json"
  },
  {
    "id": 2680,
    "siteNetwork": "asco",
    "feedUserId": "admin",
    "postUserId": "admin",
    "postDate": "2011-08-12T20:11:27.000Z",
    "activitySummary": "{\"lastName\":\"\",\"title\":\"FAQs (Contact List)\",\"page\":\"data-lists?list=cb602c9b-ac0b-4d61-946a-67eb40bd0c54\",\"nodeRef\":\"workspace://SpacesStore/8d834dae-9fa2-493a-a230-c2c555d8b7a4\",\"firstName\":\"Administrator\"}",
    "activityType": "org.alfresco.datalists.list-created",
    "activitySummaryFormat": "json"
  },
  {
    "id": 2672,
    "siteNetwork": "asco",
    "feedUserId": "admin",
    "postUserId": "admin",
    "postDate": "2011-08-12T20:10:50.000Z",
    "activitySummary": "{\"lastName\":\"\",\"title\":\"ACLs\",\"page\":\"data-lists\",\"nodeRef\":\"workspace://SpacesStore/0da9c8a2-453e-4b88-abe9-52317d0e8941\",\"firstName\":\"Administrator\"}",
    "activityType": "org.alfresco.datalists.list-deleted",
    "activitySummaryFormat": "json"
  },
  {
    "id": 2670,
    "siteNetwork": "asco",
    "feedUserId": "admin",
    "postUserId": "admin",
    "postDate": "2011-08-12T20:10:46.000Z",
    "activitySummary": "{\"lastName\":\"\",\"title\":\"Risk Items\",\"page\":\"data-lists\",\"nodeRef\":\"workspace://SpacesStore/a8e05240-9804-4e2a-a0ff-ddc17fb33299\",\"firstName\":\"Administrator\"}",
    "activityType": "org.alfresco.datalists.list-deleted",
    "activitySummaryFormat": "json"
  },
  {
    "id": 2668,
    "siteNetwork": "asco",
    "feedUserId": "admin",
    "postUserId": "admin",
    "postDate": "2011-08-12T20:10:43.000Z",
    "activitySummary": "{\"lastName\":\"\",\"title\":\"Issue Items\",\"page\":\"data-lists\",\"nodeRef\":\"workspace://SpacesStore/3634490d-19bf-4801-aecc-7d3ee6b05fe5\",\"firstName\":\"Administrator\"}",
    "activityType": "org.alfresco.datalists.list-deleted",
    "activitySummaryFormat": "json"
  },
  {
    "id": 2666,
    "siteNetwork": "asco",
    "feedUserId": "admin",
    "postUserId": "admin",
    "postDate": "2011-08-12T20:10:39.000Z",
    "activitySummary": "{\"lastName\":\"\",\"title\":\"Schedule\",\"page\":\"data-lists\",\"nodeRef\":\"workspace://SpacesStore/f38ab7c7-acee-429b-9bf6-5e7dec9c835e\",\"firstName\":\"Administrator\"}",
    "activityType": "org.alfresco.datalists.list-deleted",
    "activitySummaryFormat": "json"
  },
  {
    "id": 2662,
    "siteNetwork": "asco",
    "feedUserId": "admin",
    "postUserId": "admin",
    "postDate": "2011-08-12T20:09:09.000Z",
    "activitySummary": "{\"lastName\":\"\",\"title\":\"Yahoo\",\"page\":\"links-view?linkId=link-1313179749417_688\",\"firstName\":\"Administrator\"}",
    "activityType": "org.alfresco.links.link-created",
    "activitySummaryFormat": "json"
  },
  {
    "id": 2644,
    "siteNetwork": "asco",
    "feedUserId": "admin",
    "postUserId": "admin",
    "postDate": "2011-08-10T18:29:07.000Z",
    "activitySummary": "{\"lastName\":\"\",\"title\":\"Jay Gatsby (pres)\",\"memberLastName\":\"Gatsby\",\"role\":\"SiteContributor\",\"firstName\":\"Administrator\",\"memberUserName\":\"pres\",\"memberFirstName\":\"Jay\"}",
    "activityType": "org.alfresco.site.user-role-changed",
    "activitySummaryFormat": "json"
  },
  {
    "id": 2632,
    "siteNetwork": "pmotemplate",
    "feedUserId": "admin",
    "postUserId": "admin",
    "postDate": "2011-08-10T18:28:03.000Z",
    "activitySummary": "{\"lastName\":\"\",\"title\":\"Schedule\",\"page\":\"data-lists\",\"nodeRef\":\"workspace://SpacesStore/683f9e28-6ee9-4986-840c-d7cf7a266f38\",\"firstName\":\"Administrator\"}",
    "activityType": "org.alfresco.datalists.list-deleted",
    "activitySummaryFormat": "json"
  },
  {
    "id": 2626,
    "siteNetwork": "pmotemplate",
    "feedUserId": "admin",
    "postUserId": "admin",
    "postDate": "2011-08-10T18:27:52.000Z",
    "activitySummary": "{\"lastName\":\"\",\"title\":\"Team Members\",\"page\":\"data-lists\",\"nodeRef\":\"workspace://SpacesStore/b9af46cc-b2d0-41c4-8ef1-84c88ce39a7c\",\"firstName\":\"Administrator\"}",
    "activityType": "org.alfresco.datalists.list-deleted",
    "activitySummaryFormat": "json"
  },
  {
    "id": 2620,
    "siteNetwork": "pmotemplate",
    "feedUserId": "admin",
    "postUserId": "admin",
    "postDate": "2011-08-10T18:27:46.000Z",
    "activitySummary": "{\"lastName\":\"\",\"title\":\"Issues\",\"page\":\"data-lists\",\"nodeRef\":\"workspace://SpacesStore/77a90eca-94c0-4f9c-bfd7-757c40254f06\",\"firstName\":\"Administrator\"}",
    "activityType": "org.alfresco.datalists.list-deleted",
    "activitySummaryFormat": "json"
  },
  {
    "id": 2614,
    "siteNetwork": "pmotemplate",
    "feedUserId": "admin",
    "postUserId": "admin",
    "postDate": "2011-08-10T18:27:41.000Z",
    "activitySummary": "{\"lastName\":\"\",\"title\":\"Risks\",\"page\":\"data-lists\",\"nodeRef\":\"workspace://SpacesStore/ca64e917-168d-4362-8ffb-cc66463f239d\",\"firstName\":\"Administrator\"}",
    "activityType": "org.alfresco.datalists.list-deleted",
    "activitySummaryFormat": "json"
  },
  {
    "id": 2578,
    "siteNetwork": "FreshProcess",
    "feedUserId": "admin",
    "postUserId": "contractadmin",
    "postDate": "2011-08-04T15:19:27.000Z",
    "activitySummary": "{\"lastName\":\"Administrator\",\"title\":\"Contract Draft.doc\",\"page\":\"documentlibrary?path=/Contracts\",\"nodeRef\":\"workspace://SpacesStore/83648203-1ba0-4b96-b749-01deb76fefd9\",\"firstName\":\"Contract\"}",
    "activityType": "org.alfresco.documentlibrary.file-deleted",
    "activitySummaryFormat": "json"
  },
  {
    "id": 2572,
    "siteNetwork": "FreshProcess",
    "feedUserId": "admin",
    "postUserId": "contractadmin",
    "postDate": "2011-08-04T15:18:37.000Z",
    "activitySummary": "{\"lastName\":\"Administrator\",\"title\":\"Final Contract.pdf\",\"page\":\"documentlibrary?path=/Contracts\",\"nodeRef\":\"workspace://SpacesStore/f329d4cb-4185-406b-bf41-b6848611d0cc\",\"firstName\":\"Contract\"}",
    "activityType": "org.alfresco.documentlibrary.file-deleted",
    "activitySummaryFormat": "json"
  },
  {
    "id": 2560,
    "siteNetwork": "FreshProcess",
    "feedUserId": "admin",
    "postUserId": "contractadmin",
    "postDate": "2011-08-04T06:36:33.000Z",
    "activitySummary": "{\"lastName\":\"Administrator\",\"title\":\"signature_template.pdf\",\"page\":\"document-details?nodeRef=workspace://SpacesStore/bc9c24da-29a3-42a4-b347-a64830fa7b4f\",\"nodeRef\":\"workspace://SpacesStore/bc9c24da-29a3-42a4-b347-a64830fa7b4f\",\"firstName\":\"Contract\"}",
    "activityType": "org.alfresco.documentlibrary.file-updated",
    "activitySummaryFormat": "json"
  },
  {
    "id": 2550,
    "siteNetwork": "FreshProcess",
    "feedUserId": "admin",
    "postUserId": "contractadmin",
    "postDate": "2011-08-04T06:30:37.000Z",
    "activitySummary": "{\"lastName\":\"Administrator\",\"title\":\"FinalContract.pdf\",\"page\":\"documentlibrary?path=/Contracts\",\"nodeRef\":\"workspace://SpacesStore/2c9a3bd6-8115-4cbf-8226-9fb9ca7e26ed\",\"firstName\":\"Contract\"}",
    "activityType": "org.alfresco.documentlibrary.file-deleted",
    "activitySummaryFormat": "json"
  },
  {
    "id": 2538,
    "siteNetwork": "FreshProcess",
    "feedUserId": "admin",
    "postUserId": "contractadmin",
    "postDate": "2011-08-04T06:16:20.000Z",
    "activitySummary": "{\"lastName\":\"Administrator\",\"title\":\"signature_template.pdf\",\"page\":\"document-details?nodeRef=workspace://SpacesStore/bc9c24da-29a3-42a4-b347-a64830fa7b4f\",\"nodeRef\":\"workspace://SpacesStore/bc9c24da-29a3-42a4-b347-a64830fa7b4f\",\"firstName\":\"Contract\"}",
    "activityType": "org.alfresco.documentlibrary.file-updated",
    "activitySummaryFormat": "json"
  },
  {
    "id": 2522,
    "siteNetwork": "FreshProcess",
    "feedUserId": "admin",
    "postUserId": "contractadmin",
    "postDate": "2011-08-04T05:37:57.000Z",
    "activitySummary": "{\"lastName\":\"Administrator\",\"title\":\"Vendor Signature.png\",\"page\":\"document-details?nodeRef=workspace://SpacesStore/75cc52e1-db54-4a5a-9548-e42f4ce628e7\",\"nodeRef\":\"workspace://SpacesStore/75cc52e1-db54-4a5a-9548-e42f4ce628e7\",\"firstName\":\"Contract\"}",
    "activityType": "org.alfresco.documentlibrary.file-updated",
    "activitySummaryFormat": "json"
  },
  {
    "id": 2512,
    "siteNetwork": "FreshProcess",
    "feedUserId": "admin",
    "postUserId": "contractadmin",
    "postDate": "2011-08-04T05:34:14.000Z",
    "activitySummary": "{\"lastName\":\"Administrator\",\"title\":\"AcmeContract-07-22-2011.pdf\",\"page\":\"documentlibrary?path=/Contracts\",\"nodeRef\":\"workspace://SpacesStore/96ec72aa-f15b-460e-b130-573e2005a285\",\"firstName\":\"Contract\"}",
    "activityType": "org.alfresco.documentlibrary.file-deleted",
    "activitySummaryFormat": "json"
  },
  {
    "id": 2506,
    "siteNetwork": "FreshProcess",
    "feedUserId": "admin",
    "postUserId": "contractadmin",
    "postDate": "2011-08-04T05:34:01.000Z",
    "activitySummary": "{\"lastName\":\"Administrator\",\"title\":\"OC-Services-Zia.pdf\",\"page\":\"documentlibrary?path=/Contracts\",\"nodeRef\":\"workspace://SpacesStore/d24b1f8f-4cfe-4342-aed0-57e8b139e750\",\"firstName\":\"Contract\"}",
    "activityType": "org.alfresco.documentlibrary.file-deleted",
    "activitySummaryFormat": "json"
  },
  {
    "id": 2500,
    "siteNetwork": "FreshProcess",
    "feedUserId": "admin",
    "postUserId": "contractadmin",
    "postDate": "2011-08-04T05:33:21.000Z",
    "activitySummary": "{\"lastName\":\"Administrator\",\"title\":\"Contract.pdf\",\"page\":\"documentlibrary?path=/Contracts\",\"nodeRef\":\"workspace://SpacesStore/d5bb07a6-8e7f-4ee1-a310-6db72e2f97b4\",\"firstName\":\"Contract\"}",
    "activityType": "org.alfresco.documentlibrary.file-deleted",
    "activitySummaryFormat": "json"
  },
  {
    "id": 2494,
    "siteNetwork": "FreshProcess",
    "feedUserId": "admin",
    "postUserId": "contractadmin",
    "postDate": "2011-08-04T05:33:15.000Z",
    "activitySummary": "{\"lastName\":\"Administrator\",\"title\":\"Contract-Aug1.pdf\",\"page\":\"documentlibrary?path=/Contracts\",\"nodeRef\":\"workspace://SpacesStore/1564cb68-41d1-4b38-9edd-7f87b215e596\",\"firstName\":\"Contract\"}",
    "activityType": "org.alfresco.documentlibrary.file-deleted",
    "activitySummaryFormat": "json"
  },
  {
    "id": 2488,
    "siteNetwork": "FreshProcess",
    "feedUserId": "admin",
    "postUserId": "contractadmin",
    "postDate": "2011-08-04T05:33:07.000Z",
    "activitySummary": "{\"lastName\":\"Administrator\",\"title\":\"Security-Contract-Zia-6-20-2011.pdf\",\"page\":\"documentlibrary?path=/Contracts\",\"nodeRef\":\"workspace://SpacesStore/f0f2fe4f-ea7b-4508-9cea-93b73a7bb064\",\"firstName\":\"Contract\"}",
    "activityType": "org.alfresco.documentlibrary.file-deleted",
    "activitySummaryFormat": "json"
  },
  {
    "id": 2482,
    "siteNetwork": "FreshProcess",
    "feedUserId": "admin",
    "postUserId": "contractadmin",
    "postDate": "2011-08-04T05:32:46.000Z",
    "activitySummary": "{\"lastName\":\"Administrator\",\"title\":\"new contract.pdf\",\"page\":\"documentlibrary?path=/Contracts\",\"nodeRef\":\"workspace://SpacesStore/ce6e808a-c31a-4e61-9798-b2c5bedf8033\",\"firstName\":\"Contract\"}",
    "activityType": "org.alfresco.documentlibrary.file-deleted",
    "activitySummaryFormat": "json"
  },
  {
    "id": 2476,
    "siteNetwork": "FreshProcess",
    "feedUserId": "admin",
    "postUserId": "contractadmin",
    "postDate": "2011-08-04T05:32:39.000Z",
    "activitySummary": "{\"lastName\":\"Administrator\",\"title\":\"Contract-security-acme.pdf\",\"page\":\"documentlibrary?path=/Contracts\",\"nodeRef\":\"workspace://SpacesStore/d3f8d742-69d2-49bf-97a0-13c974ca50f3\",\"firstName\":\"Contract\"}",
    "activityType": "org.alfresco.documentlibrary.file-deleted",
    "activitySummaryFormat": "json"
  },
  {
    "id": 2470,
    "siteNetwork": "FreshProcess",
    "feedUserId": "admin",
    "postUserId": "contractadmin",
    "postDate": "2011-08-04T05:32:30.000Z",
    "activitySummary": "{\"lastName\":\"Administrator\",\"title\":\"finalcontract2.pdf\",\"page\":\"documentlibrary?path=/Contracts\",\"nodeRef\":\"workspace://SpacesStore/a2bbed88-5ee6-4d7d-aec9-a94a626620ef\",\"firstName\":\"Contract\"}",
    "activityType": "org.alfresco.documentlibrary.file-deleted",
    "activitySummaryFormat": "json"
  },
  {
    "id": 2464,
    "siteNetwork": "FreshProcess",
    "feedUserId": "admin",
    "postUserId": "contractadmin",
    "postDate": "2011-08-04T05:32:18.000Z",
    "activitySummary": "{\"lastName\":\"Administrator\",\"title\":\"finalcontract.pdf\",\"page\":\"documentlibrary?path=/Contracts\",\"nodeRef\":\"workspace://SpacesStore/95558399-f7f1-4c68-aaf7-dd4988e0c64d\",\"firstName\":\"Contract\"}",
    "activityType": "org.alfresco.documentlibrary.file-deleted",
    "activitySummaryFormat": "json"
  },
  {
    "id": 2452,
    "siteNetwork": "FreshProcess",
    "feedUserId": "admin",
    "postUserId": "contractadmin",
    "postDate": "2011-08-02T23:23:40.000Z",
    "activitySummary": "{\"lastName\":\"Administrator\",\"title\":\"Vendor Signature-transparent.png\",\"page\":\"document-details?nodeRef=workspace://SpacesStore/75cc52e1-db54-4a5a-9548-e42f4ce628e7\",\"nodeRef\":\"workspace://SpacesStore/75cc52e1-db54-4a5a-9548-e42f4ce628e7\",\"firstName\":\"Contract\"}",
    "activityType": "org.alfresco.documentlibrary.file-updated",
    "activitySummaryFormat": "json"
  },
  {
    "id": 2436,
    "siteNetwork": "FreshProcess",
    "feedUserId": "admin",
    "postUserId": "admin",
    "postDate": "2011-08-02T22:41:55.000Z",
    "activitySummary": "{\"lastName\":\"\",\"title\":\"Contract Administrator (contractadmin)\",\"memberLastName\":\"Administrator\",\"role\":\"SiteManager\",\"firstName\":\"Administrator\",\"memberUserName\":\"contractadmin\",\"memberFirstName\":\"Contract\"}",
    "activityType": "org.alfresco.site.user-role-changed",
    "activitySummaryFormat": "json"
  },
  {
    "id": 2420,
    "siteNetwork": "FreshProcess",
    "feedUserId": "admin",
    "postUserId": "contractadmin",
    "postDate": "2011-08-02T22:35:40.000Z",
    "activitySummary": "{\"lastName\":\"Administrator\",\"title\":\"Vendor Signature-transparent.png\",\"page\":\"document-details?nodeRef=workspace://SpacesStore/75cc52e1-db54-4a5a-9548-e42f4ce628e7\",\"nodeRef\":\"workspace://SpacesStore/75cc52e1-db54-4a5a-9548-e42f4ce628e7\",\"firstName\":\"Contract\"}",
    "activityType": "org.alfresco.documentlibrary.file-added",
    "activitySummaryFormat": "json"
  },
  {
    "id": 2410,
    "siteNetwork": "FreshProcess",
    "feedUserId": "admin",
    "postUserId": "contractadmin",
    "postDate": "2011-08-02T22:34:56.000Z",
    "activitySummary": "{\"lastName\":\"Administrator\",\"title\":\"Vendor Signature.jpg\",\"page\":\"documentlibrary?path=/Contracts/Security System Contract\",\"nodeRef\":\"workspace://SpacesStore/63e66a83-32eb-41d3-aaf2-93c6f33520f1\",\"firstName\":\"Contract\"}",
    "activityType": "org.alfresco.documentlibrary.file-deleted",
    "activitySummaryFormat": "json"
  }
]